{
    "emo": [
            {"label": "Безмятежность", "value": "4.8"},
            {"label": "Процветание", "value": "4.7"},
            {"label": "Уверенность", "value": "4.6"},
            {"label": "Успех", "value": "4.5"},
            {"label": "Ликование", "value": "4.4"},
            {"label": "Азарт", "value": "4.3"},
            {"label": "Игривость", "value": "4.2"},
            {"label": "Энтузиазм", "value": "4.1"},
            {"label": "Воодушевление", "value": "4"},
            {"label": "Вдохновение", "value": "3.9"},
            {"label": "Увлечение", "value": "3.8"},
            {"label": "Восторг", "value": "3.7"},
            {"label": "Восхищение", "value": "3.6"},
            {"label": "Гордость", "value": "3.5"},
            {"label": "Эйфория", "value": "3.4"},
            {"label": "Кайф", "value": "3.3"},
            {"label": "Удовольствие", "value": "3.2"},
            {"label": "Счастье", "value": "3.1"},
            {"label": "Веселье", "value": "3"},
            {"label": "Радость", "value": "2.9"},
            {"label": "Изумление", "value": "2.8"},
            {"label": "Сильный интерес", "value": "2.7"},
            {"label": "Любопытство", "value": "2.6"},
            {"label": "Дружелюбие", "value": "2.5"},
            {"label": "Расслабление", "value": "2.4"},
            {"label": "Довольство", "value": "2.3"},
            {"label": "Комфорт", "value": "2.2"},
            {"label": "Доверие", "value": "2.1"},
            {"label": "Благодарность", "value": "2"},
            {"label": "Спокойствие", "value": "1.9"},
            {"label": "Покой", "value": "1.8"},
            {"label": "Безопасность", "value": "1.7"},
            {"label": "Консерватизм", "value": "1.6"},
            {"label": "Умеренный интерес", "value": "1.5"},
            {"label": "Удовлетворенность", "value": "1.4"},
            {"label": "Надежда", "value": "1.3"},
            {"label": "Принятие", "value": "1.2"},
            {"label": "Невозмутимость", "value": "1"},
            {"label": "однообразие", "value": "0.3"},
            {"label": "Монотонность", "value": "0.2"},
            {"label": "Смирение", "value": "0.1"},
            {"label": "Скука", "value": "0.0"},
            {"label": "Безразличие", "value": "-0.1"},
            {"label": "Меланхолия", "value": "-0.2"},
            {"label": "Грусть", "value": "-1.0"},
            {"label": "Ностальгия", "value": "-1.1"},
            {"label": "Печаль", "value": "-1.2"},
            {"label": "Сожаление", "value": "-1.3"},
            {"label": "Сострадание", "value": "-1.4"},
            {"label": "Соболезнование", "value": "-1.5"},
            {"label": "Жалость", "value": "-1.6"},
            {"label": "Разочарование", "value": "-1.7"},
            {"label": "Подавленность", "value": "-1.8"},
            {"label": "Подавленность", "value": "-1.8"},
            {"label": "Пессимизм", "value": "-1.9"},
            {"label": "Оцепенение", "value": "-2"},
            {"label": "Уныние", "value": "-2.1"},
            {"label": "Утрата иллюзий", "value": "-2.2"},
            {"label": "Слезливость", "value": "-2.3"},
            {"label": "Горечь", "value": "-2.4"},
            {"label": "Тоска", "value": "-2.5"},
            {"label": "Беззащитность", "value": "-3"},
            {"label": "Расстерянность", "value": "-3.1"},
            {"label": "Недоумение", "value": "-3.2"},
            {"label": "Удивление", "value": "-3.3"},
            {"label": "Скепсис", "value": "-3.4"},
            {"label": "Волнение", "value": "-3.5"},
            {"label": "Беспокойство", "value": "-3.6"},
            {"label": "Опасение", "value": "-3.7"},
            {"label": "Бдительность", "value": "-3.8"},
            {"label": "Настороженность", "value": "-3.9"},
            {"label": "Нервозность", "value": "-4"},
            {"label": "Боязнь", "value": "-4.1"},
            {"label": "Испуг", "value": "-4.2"},
            {"label": "Стресс", "value": "-4.3"},
            {"label": "Страх", "value": "-4.4"},
            {"label": "Ужас", "value": "-4.5"},
            {"label": "Паника", "value": "-4.6"},
            {"label": "Кошмар", "value": "-4.7"},
            {"label": "Недовольство", "value": "-5"},
            {"label": "Огорчение", "value": "-5.1"},
            {"label": "Обида", "value": "-5.2"},
            {"label": "Равнодушие", "value": "-5.3"},
            {"label": "Антагонизм", "value": "-5.4"},
            {"label": "Раздражение", "value": "-5.5"},
            {"label": "Врвждебность", "value": "-5.6"},
            {"label": "Язвительность", "value": "-5.7"},
            {"label": "Досада", "value": "-5.9"},
            {"label": "Зависть", "value": "-6"},
            {"label": "Нетерпение", "value": "-6.1"},
            {"label": "Отвращение", "value": "-6.2"},
            {"label": "Презрение", "value": "-6.3"},
            {"label": "Злость", "value": "-6.4"},
            {"label": "Гнев", "value": "-6.5"},
            {"label": "Агрессия", "value": "-6.6"},
            {"label": "Ярость", "value": "-6.7"},
            {"label": "Бешенество", "value": "-7"},
            {"label": "Ненависть", "value": "-7.1"},
            {"label": "Злорадство", "value": "-7.2"},
            {"label": "Возмущение", "value": "-7.3"},
            {"label": "Ревность", "value": "-7.4"},
            {"label": "Предательство", "value": "-7.5"},
            {"label": "Покинутость", "value": "-7.6"},
            {"label": "Шок", "value": "-7.7"},
            {"label": "Безнадежность", "value": "-7.8"},
            {"label": "Мука", "value": "-7.9"},
            {"label": "Оскорбление", "value": "-8"},
            {"label": "Страдание", "value": "-8.1"},
            {"label": "Ненужность", "value": "-8.2"},
            {"label": "Бесполезность", "value": "-8.3"},
            {"label": "Сочувствие", "value": "-8.4"},
            {"label": "Задабривание", "value": "-8.5"},
            {"label": "Скрбь", "value": "-8.6"},
            {"label": "Горе", "value": "-8.7"},
            {"label": "Искупление", "value": "-8.8"},
            {"label": "Самоуничтожение", "value": "-8.9"},
            {"label": "Жертвенность", "value": "-9"},
            {"label": "Глубокая печаль", "value": "-9.1"},
            {"label": "Отчаяние", "value": "-9.2"},
            {"label": "Бессилие", "value": "-10"},
            {"label": "Апатия", "value": "-10.1"},
            {"label": "Депрессия", "value": "-10.2"},
            {"label": "Отрешенность", "value": "-10.3"},
            {"label": "Сиротливость", "value": "-10.4"},
            {"label": "Стеснение", "value": "-10.5"},
            {"label": "Одиночество", "value": "-10.6"},
            {"label": "Ничтожность", "value": "-10.7"},
            {"label": "Вина", "value": "-10.8"},
            {"label": "Позор", "value": "-10.9"},
            {"label": "Глупость", "value": "-11"},
            {"label": "Конфуз", "value": "-11.1"},
            {"label": "Стыд", "value": "-11.2"},
            {"label": "Провал", "value": "-11.3"}


    ],
    "level": [
            {"label": "High", "value": "3"},
            {"label": "Medium", "value": "2"},
            {"label": "Low", "value": "1"}       
    ]
}